Metodologias Informacionais com R
…
---
### .orange[Manipulação de <svg viewBox="0 0 512 512" style="height:1em;position:relative;display:inline-block;top:.1em;" xmlns="http://www.w3.org/2000/svg">  <path d="M464 32H48C21.49 32 0 53.49 0 80v352c0 26.51 21.49 48 48 48h416c26.51 0 48-21.49 48-48V80c0-26.51-21.49-48-48-48zM224 416H64v-96h160v96zm0-160H64v-96h160v96zm224 160H288v-96h160v96zm0-160H288v-96h160v96z"></path></svg> dados - seleção]

Importaremos o pacote .purple[<b>dplyr</b>] para usar as funções diretamente. Para selecionar colunas usamos a função .purple[select()].
  
  ```r
  library(dplyr)
  ```
  
  ```r
  select(mtcars, gear)
  ```
  
  ```
  ## # A tibble: 32 × 1
  ##     gear
  ##    <dbl>
  ##  1     4
  ##  2     4
  ##  3     4
  ##  4     3
  ##  5     3
  ##  6     3
  ##  7     3
  ##  8     4
  ##  9     4
  ## 10     4
  ## # ℹ 22 more rows
  ```

---
### .orange[Manipulação de <svg viewBox="0 0 512 512" style="height:1em;position:relative;display:inline-block;top:.1em;" xmlns="http://www.w3.org/2000/svg">  <path d="M464 32H48C21.49 32 0 53.49 0 80v352c0 26.51 21.49 48 48 48h416c26.51 0 48-21.49 48-48V80c0-26.51-21.49-48-48-48zM224 416H64v-96h160v96zm0-160H64v-96h160v96zm224 160H288v-96h160v96zm0-160H288v-96h160v96z"></path></svg> dados - seleção]

Como selecionar multiplas colunas? 

  ```r
  # select(mtcars, c(mpg, cyl, gear))
  select(mtcars, mpg, cyl, gear)
  ```
  
  ```
  ## # A tibble: 32 × 3
  ##      mpg   cyl  gear
  ##    <dbl> <dbl> <dbl>
  ##  1  21       6     4
  ##  2  21       6     4
  ##  3  22.8     4     4
  ##  4  21.4     6     3
  ##  5  18.7     8     3
  ##  6  18.1     6     3
  ##  7  14.3     8     3
  ##  8  24.4     4     4
  ##  9  22.8     4     4
  ## 10  19.2     6     4
  ## # ℹ 22 more rows
  ```
---
### .orange[Manipulação de <svg viewBox="0 0 512 512" style="height:1em;position:relative;display:inline-block;top:.1em;" xmlns="http://www.w3.org/2000/svg">  <path d="M464 32H48C21.49 32 0 53.49 0 80v352c0 26.51 21.49 48 48 48h416c26.51 0 48-21.49 48-48V80c0-26.51-21.49-48-48-48zM224 416H64v-96h160v96zm0-160H64v-96h160v96zm224 160H288v-96h160v96zm0-160H288v-96h160v96z"></path></svg> dados - seleção]

Como excluir colunas da seleção? 

  ```r
  # select(mtcars, -mpg, -cyl, -gear)
  select(mtcars, -c(mpg, cyl, gear))
  ```
  
  ```
  ## # A tibble: 32 × 9
  ##    model              disp    hp  drat    wt  qsec    vs    am  carb
  ##    <chr>             <dbl> <dbl> <dbl> <dbl> <dbl> <dbl> <dbl> <dbl>
  ##  1 Mazda RX4          160    110  3.9   2.62  16.5     0     1     4
  ##  2 Mazda RX4 Wag      160    110  3.9   2.88  17.0     0     1     4
  ##  3 Datsun 710         108     93  3.85  2.32  18.6     1     1     1
  ##  4 Hornet 4 Drive     258    110  3.08  3.22  19.4     1     0     1
  ##  5 Hornet Sportabout  360    175  3.15  3.44  17.0     0     0     2
  ##  6 Valiant            225    105  2.76  3.46  20.2     1     0     1
  ##  7 Duster 360         360    245  3.21  3.57  15.8     0     0     4
  ##  8 Merc 240D          147.    62  3.69  3.19  20       1     0     2
  ##  9 Merc 230           141.    95  3.92  3.15  22.9     1     0     2
  ## 10 Merc 280           168.   123  3.92  3.44  18.3     1     0     4
  ## # ℹ 22 more rows
  ```
  
---
### .orange[Manipulação de <svg viewBox="0 0 512 512" style="height:1em;position:relative;display:inline-block;top:.1em;" xmlns="http://www.w3.org/2000/svg">  <path d="M464 32H48C21.49 32 0 53.49 0 80v352c0 26.51 21.49 48 48 48h416c26.51 0 48-21.49 48-48V80c0-26.51-21.49-48-48-48zM224 416H64v-96h160v96zm0-160H64v-96h160v96zm224 160H288v-96h160v96zm0-160H288v-96h160v96z"></path></svg> dados - seleção]

Selecionar colunas consecutivas? Use o operador .purple.xlarge[:] (<i>Colon</i>).

  ```r
  select(mtcars, 1:5)
  ```
  
  ```
  ## # A tibble: 32 × 5
  ##    model               mpg   cyl  disp    hp
  ##    <chr>             <dbl> <dbl> <dbl> <dbl>
  ##  1 Mazda RX4          21       6  160    110
  ##  2 Mazda RX4 Wag      21       6  160    110
  ##  3 Datsun 710         22.8     4  108     93
  ##  4 Hornet 4 Drive     21.4     6  258    110
  ##  5 Hornet Sportabout  18.7     8  360    175
  ##  6 Valiant            18.1     6  225    105
  ##  7 Duster 360         14.3     8  360    245
  ##  8 Merc 240D          24.4     4  147.    62
  ##  9 Merc 230           22.8     4  141.    95
  ## 10 Merc 280           19.2     6  168.   123
  ## # ℹ 22 more rows
  ```
…
Leia mais sobre na boa descrição em <A href="https://livro.curso-r.com/6-pipe.html">Curso R</A>.</p>

---
### .orange[Manipulação de <svg viewBox="0 0 512 512" style="height:1em;position:relative;display:inline-block;top:.1em;" xmlns="http://www.w3.org/2000/svg">  <path d="M464 32H48C21.49 32 0 53.49 0 80v352c0 26.51 21.49 48 48 48h416c26.51 0 48-21.49 48-48V80c0-26.51-21.49-48-48-48zM224 416H64v-96h160v96zm0-160H64v-96h160v96zm224 160H288v-96h160v96zm0-160H288v-96h160v96z"></path></svg> dados - ordenação]

 Podemos ordenar as linhas com .purple[arrange()].

  ```r
  mtcars |> arrange(desc(hp))
  ```
  
  ```
  ## # A tibble: 32 × 12
  ##    model         mpg   cyl  disp    hp  drat    wt  qsec    vs    am  gear  carb
  ##    <chr>       <dbl> <dbl> <dbl> <dbl> <dbl> <dbl> <dbl> <dbl> <dbl> <dbl> <dbl>
  ##  1 Maserati B…  15       8  301    335  3.54  3.57  14.6     0     1     5     8
  ##  2 Ford Pante…  15.8     8  351    264  4.22  3.17  14.5     0     1     5     4
  ##  3 Duster 360   14.3     8  360    245  3.21  3.57  15.8     0     0     3     4
  ##  4 Camaro Z28   13.3     8  350    245  3.73  3.84  15.4     0     0     3     4
  ##  5 Chrysler I…  14.7     8  440    230  3.23  5.34  17.4     0     0     3     4
  ##  6 Lincoln Co…  10.4     8  460    215  3     5.42  17.8     0     0     3     4
  ##  7 Cadillac F…  10.4     8  472    205  2.93  5.25  18.0     0     0     3     4
  ##  8 Merc 450SE   16.4     8  276.   180  3.07  4.07  17.4     0     0     3     3
  ##  9 Merc 450SL   17.3     8  276.   180  3.07  3.73  17.6     0     0     3     3
  ## 10 Merc 450SLC  15.2     8  276.   180  3.07  3.78  18       0     0     3     3
  ## # ℹ 22 more rows
  ```

---
### .orange[Manipulação de <svg viewBox="0 0 512 512" style="height:1em;position:relative;display:inline-block;top:.1em;" xmlns="http://www.w3.org/2000/svg">  <path d="M464 32H48C21.49 32 0 53.49 0 80v352c0 26.51 21.49 48 48 48h416c26.51 0 48-21.49 48-48V80c0-26.51-21.49-48-48-48zM224 416H64v-96h160v96zm0-160H64v-96h160v96zm224 160H288v-96h160v96zm0-160H288v-96h160v96z"></path></svg> dados - ordenação]

 Podem ser usadas duas o mais colunas na ordenação.

  ```r
  mtcars |> arrange(mpg, desc(hp))
  ```
  
  ```
  ## # A tibble: 32 × 12
  ##    model         mpg   cyl  disp    hp  drat    wt  qsec    vs    am  gear  carb
  ##    <chr>       <dbl> <dbl> <dbl> <dbl> <dbl> <dbl> <dbl> <dbl> <dbl> <dbl> <dbl>
  ##  1 Lincoln Co…  10.4     8  460    215  3     5.42  17.8     0     0     3     4
  ##  2 Cadillac F…  10.4     8  472    205  2.93  5.25  18.0     0     0     3     4
  ##  3 Camaro Z28   13.3     8  350    245  3.73  3.84  15.4     0     0     3     4
  ##  4 Duster 360   14.3     8  360    245  3.21  3.57  15.8     0     0     3     4
  ##  5 Chrysler I…  14.7     8  440    230  3.23  5.34  17.4     0     0     3     4
  ##  6 Maserati B…  15       8  301    335  3.54  3.57  14.6     0     1     5     8
  ##  7 Merc 450SLC  15.2     8  276.   180  3.07  3.78  18       0     0     3     3
  ##  8 AMC Javelin  15.2     8  304    150  3.15  3.44  17.3     0     0     3     2
  ##  9 Dodge Chal…  15.5     8  318    150  2.76  3.52  16.9     0     0     3     2
  ## 10 Ford Pante…  15.8     8  351    264  4.22  3.17  14.5     0     1     5     4
  ## # ℹ 22 more rows
  ```
…
---
### .orange[Manipulação de <svg viewBox="0 0 512 512" style="height:1em;position:relative;display:inline-block;top:.1em;" xmlns="http://www.w3.org/2000/svg">  <path d="M464 32H48C21.49 32 0 53.49 0 80v352c0 26.51 21.49 48 48 48h416c26.51 0 48-21.49 48-48V80c0-26.51-21.49-48-48-48zM224 416H64v-96h160v96zm0-160H64v-96h160v96zm224 160H288v-96h160v96zm0-160H288v-96h160v96z"></path></svg> dados - criaçã/modificação]

  Para criar/modificar colunas usamos a função .purple[mutate()].

   ```r
     mtcars_new <- mtcars |> 
     mutate(power_to_weight =  hp / (wt*1000)) |>
     select( -c(qsec, vs, am))
     mtcars_new
   ```
   
   ```
   ## # A tibble: 32 × 10
   ##    model           mpg   cyl  disp    hp  drat    wt  gear  carb power_to_weight
   ##    <chr>         <dbl> <dbl> <dbl> <dbl> <dbl> <dbl> <dbl> <dbl>           <dbl>
   ##  1 Mazda RX4      21       6  160    110  3.9   2.62     4     4          0.0420
   ##  2 Mazda RX4 Wag  21       6  160    110  3.9   2.88     4     4          0.0383
   ##  3 Datsun 710     22.8     4  108     93  3.85  2.32     4     1          0.0401
   ##  4 Hornet 4 Dri…  21.4     6  258    110  3.08  3.22     3     1          0.0342
   ##  5 Hornet Sport…  18.7     8  360    175  3.15  3.44     3     2          0.0509
   ##  6 Valiant        18.1     6  225    105  2.76  3.46     3     1          0.0303
   ##  7 Duster 360     14.3     8  360    245  3.21  3.57     3     4          0.0686
   ##  8 Merc 240D      24.4     4  147.    62  3.69  3.19     4     2          0.0194
   ##  9 Merc 230       22.8     4  141.    95  3.92  3.15     4     2          0.0302
   ## 10 Merc 280       19.2     6  168.   123  3.92  3.44     4     4          0.0358
   ## # ℹ 22 more rows
   ```
…
